com/jurodca/action/PartnerAction.class
com/jurodca/entities/Partner.class
com/jurodca/action/AppAction.class
com/jurodca/interfaces/dao/PartnerDAO.class
com/jurodca/dao/PartnerDAOImpl.class
com/jurodca/utils/Utilities.class
